[gd_scene load_steps=8 format=3 uid="uid://c0ul71xiinoj3"]

[ext_resource type="PackedScene" uid="uid://kfs5o1bqvt8x" path="res://Scenes/planet.tscn" id="1_6uiui"]
[ext_resource type="Script" path="res://Scripts/game.gd" id="1_b2ovv"]
[ext_resource type="PackedScene" uid="uid://jgli61opapoq" path="res://Scenes/interface.tscn" id="2_i50kh"]
[ext_resource type="PackedScene" uid="uid://cbo1145ebrxql" path="res://Scenes/UI/GameOver.tscn" id="3_2bpko"]
[ext_resource type="PackedScene" uid="uid://dwldctogj7hrg" path="res://Scenes/Levels/MainMenu.tscn" id="3_2p804"]
[ext_resource type="PackedScene" uid="uid://bkicm0eeewish" path="res://Scenes/UI/LevelClear.tscn" id="4_y8cq5"]
[ext_resource type="PackedScene" uid="uid://b7kd5towowbn3" path="res://Scenes/UI/Objectives.tscn" id="6_crhe8"]

[node name="Game" type="Node2D"]
script = ExtResource("1_b2ovv")

[node name="Planet" parent="." instance=ExtResource("1_6uiui")]

[node name="Interface" parent="." instance=ExtResource("2_i50kh")]
anchors_preset = 15
anchor_right = 1.0
anchor_bottom = 1.0
offset_right = 0.0
offset_bottom = 0.0
grow_horizontal = 2
grow_vertical = 2

[node name="Camera2D2" type="Camera2D" parent="."]
offset = Vector2(160, 90)

[node name="Objectives" parent="." instance=ExtResource("6_crhe8")]
visible = false

[node name="MainMenu" parent="." instance=ExtResource("3_2p804")]

[node name="GameOver" parent="." instance=ExtResource("3_2bpko")]
visible = false

[node name="LevelClear" parent="." instance=ExtResource("4_y8cq5")]
visible = false
