[gd_scene load_steps=8 format=3 uid="uid://dpstdb1frsb2u"]

[ext_resource type="Script" path="res://Scripts/JellyFish.gd" id="1_ewks3"]
[ext_resource type="Texture2D" uid="uid://2g4073euvgda" path="res://Sprites/TEX_jellyfish_mini.png" id="2_i4gvf"]
[ext_resource type="Script" path="res://Scripts/Movement.gd" id="3_u0hv8"]
[ext_resource type="Script" path="res://Scripts/FishData.gd" id="4_ixjex"]
[ext_resource type="Texture2D" uid="uid://c4k1i0siy82t4" path="res://Sprites/TEX_jellyfish.png" id="5_pqs14"]
[ext_resource type="Script" path="res://Scripts/RaycastDirection.gd" id="6_e3b8j"]

[sub_resource type="CircleShape2D" id="CircleShape2D_7y1wy"]

[node name="JellyFish" type="Node2D"]
position = Vector2(135, 145)
script = ExtResource("1_ewks3")
current_direction = Vector2(0, -1)
metadata/_edit_group_ = true

[node name="Sprite2D" type="Sprite2D" parent="."]
texture = ExtResource("2_i4gvf")
region_rect = Rect2(17, 170, 16, 16)

[node name="Area2D" type="Area2D" parent="."]
scale = Vector2(0.5, 0.5)

[node name="CollisionShape2D" type="CollisionShape2D" parent="Area2D"]
shape = SubResource("CircleShape2D_7y1wy")

[node name="Movement" type="Node" parent="."]
script = ExtResource("3_u0hv8")

[node name="FishData" type="Node" parent="."]
script = ExtResource("4_ixjex")
inventorySprite = ExtResource("5_pqs14")
shape = [[1, 1, 1, 0, 0], [1, 0, 1, 0, 0], [0, 0, 0, 0, 0], [0, 0, 0, 0, 0], [0, 0, 0, 0, 0]]
fishSize = 5
fishType = 2
spriteOrientationOffsets = [Vector2(0, 0), Vector2(32, 0), Vector2(48, 32), Vector2(0, 48)]

[node name="RayCast2D" type="RayCast2D" parent="."]
target_position = Vector2(0, 16)
collide_with_areas = true
script = ExtResource("6_e3b8j")
